tabelas-r
…
# Carregar
library(gt)

Dados

Para contruir as tabelas com gt, utilizaremos os dados de produção agrícola dos países

# Carregar url e ler dados
url <- 'https://raw.githubusercontent.com/rfordatascience/tidytuesday/master/data/2020/2020-09-01/key_crop_yields.csv'

prod_agricola <- readr::read_csv(url)

# Visualizar dados
prod_agricola
## # A tibble: 13,075 × 14
##    Entity      Code   Year `Wheat (tonnes per hectare)` Rice (tonnes per hecta…¹
##    <chr>       <chr> <dbl>                        <dbl>                    <dbl>
##  1 Afghanistan AFG    1961                        1.02                      1.52
##  2 Afghanistan AFG    1962                        0.974                     1.52
##  3 Afghanistan AFG    1963                        0.832                     1.52
##  4 Afghanistan AFG    1964                        0.951                     1.73
##  5 Afghanistan AFG    1965                        0.972                     1.73
##  6 Afghanistan AFG    1966                        0.867                     1.52
##  7 Afghanistan AFG    1967                        1.12                      1.92
##  8 Afghanistan AFG    1968                        1.16                      1.95
##  9 Afghanistan AFG    1969                        1.19                      1.98
## 10 Afghanistan AFG    1970                        0.956                     1.81
## # ℹ 13,065 more rows
## # ℹ abbreviated name: ¹​`Rice (tonnes per hectare)`
## # ℹ 9 more variables: `Maize (tonnes per hectare)` <dbl>,
## #   `Soybeans (tonnes per hectare)` <dbl>,
## #   `Potatoes (tonnes per hectare)` <dbl>, `Beans (tonnes per hectare)` <dbl>,
## #   `Peas (tonnes per hectare)` <dbl>, `Cassava (tonnes per hectare)` <dbl>,
## #   `Barley (tonnes per hectare)` <dbl>, …
…
