manipulacao-dados
…
A função select()

A função select() seleciona um subconjunto das variáveis (colunas).

# Selecionar variaveis
pnud_mun |>
  select(
    ano, regiao, muni
    )
## # A tibble: 16,686 × 3
##      ano regiao muni                 
##    <dbl> <chr>  <chr>                
##  1  1991 Norte  ALTA FLORESTA D'OESTE
##  2  1991 Norte  ARIQUEMES            
##  3  1991 Norte  CABIXI               
##  4  1991 Norte  CACOAL               
##  5  1991 Norte  CEREJEIRAS           
##  6  1991 Norte  COLORADO DO OESTE    
##  7  1991 Norte  CORUMBIARA           
##  8  1991 Norte  COSTA MARQUES        
##  9  1991 Norte  ESPIGÃO D'OESTE      
## 10  1991 Norte  GUAJARÁ-MIRIM        
## # ℹ 16,676 more rows

A função select()

É possível selecionar variáveis através dos nomes, índices, intervalos de variáveis ou utilizar as select helpers: starts_with(), ends_with(), contains(), matchs(), entre outras (ver link):

# Selecionar variaveis
pnud_mun |>
  select(
    1, muni, starts_with("idhm")
    )
## # A tibble: 16,686 × 6
##      ano muni                   idhm idhm_e idhm_l idhm_r
##    <dbl> <chr>                 <dbl>  <dbl>  <dbl>  <dbl>
##  1  1991 ALTA FLORESTA D'OESTE 0.329  0.112  0.617  0.516
##  2  1991 ARIQUEMES             0.432  0.199  0.684  0.593
##  3  1991 CABIXI                0.309  0.108  0.636  0.43 
##  4  1991 CACOAL                0.407  0.171  0.667  0.593
##  5  1991 CEREJEIRAS            0.386  0.167  0.629  0.547
##  6  1991 COLORADO DO OESTE     0.376  0.151  0.658  0.536
##  7  1991 CORUMBIARA            0.203  0.039  0.572  0.373
##  8  1991 COSTA MARQUES         0.425  0.22   0.629  0.553
##  9  1991 ESPIGÃO D'OESTE       0.388  0.159  0.653  0.561
## 10  1991 GUAJARÁ-MIRIM         0.468  0.247  0.662  0.625
## # ℹ 16,676 more rows

A função select()

Outros exemplos:

# Selecionar variáveis
pnud_mun |>
  select(
    muni, uf, ends_with("vida"), contains("pc")
      )
## # A tibble: 16,686 × 4
##    muni                  uf    espvida  rdpc
##    <chr>                 <chr>   <dbl> <dbl>
##  1 ALTA FLORESTA D'OESTE RO       62.0 198. 
##  2 ARIQUEMES             RO       66.0 319. 
##  3 CABIXI                RO       63.2 116. 
##  4 CACOAL                RO       65.0 320. 
##  5 CEREJEIRAS            RO       62.7 240. 
##  6 COLORADO DO OESTE     RO       64.5 225. 
##  7 CORUMBIARA            RO       59.3  81.4
##  8 COSTA MARQUES         RO       62.8 250. 
##  9 ESPIGÃO D'OESTE       RO       64.2 263. 
## 10 GUAJARÁ-MIRIM         RO       64.7 391. 
## # ℹ 16,676 more rows
…
A função filter()

A função filter() filtra por linhas. Ela é semelhante à função subset() nativa do R.

# Filtrar linhas
pnud_mun |>
  select(
    ano:uf, gini, pop
    ) |>
  filter(
    uf == "PB"
    )
## # A tibble: 669 × 5
##      ano muni                     uf     gini   pop
##    <dbl> <chr>                    <chr> <dbl> <dbl>
##  1  1991 ÁGUA BRANCA              PB     0.53  8048
##  2  1991 AGUIAR                   PB     0.49  6739
##  3  1991 ALAGOA GRANDE            PB     0.6  30011
##  4  1991 ALAGOA NOVA              PB     0.52 15140
##  5  1991 ALAGOINHA                PB     0.47 11787
##  6  1991 ALCANTIL                 PB     0.42  3845
##  7  1991 ALGODÃO DE JANDAÍRA      PB     0.37  2211
##  8  1991 ALHANDRA                 PB     0.48 13128
##  9  1991 SÃO JOÃO DO RIO DO PEIXE PB     0.56 17354
## 10  1991 AMPARO                   PB     0.5   1668
## # ℹ 659 more rows
A função filter()

Ainda, é possível realizar operações condicionais:

# Filtrar linhas
pnud_mun |>
  select(
    ano:uf, gini, pop
  ) |>
  filter(
    uf %in% c("PB", "RN"),
    gini > 0.5,
    ano == 2010
  )
## # A tibble: 176 × 5
##      ano muni            uf     gini   pop
##    <dbl> <chr>           <chr> <dbl> <dbl>
##  1  2010 AÇU             RN     0.53 52854
##  2  2010 AFONSO BEZERRA  RN     0.53 10666
##  3  2010 ALEXANDRIA      RN     0.53 13284
##  4  2010 ANGICOS         RN     0.51 11421
##  5  2010 ANTÔNIO MARTINS RN     0.51  6783
##  6  2010 APODI           RN     0.55 34143
##  7  2010 ARÊS            RN     0.53 12632
##  8  2010 AUGUSTO SEVERO  RN     0.68  9041
##  9  2010 BODÓ            RN     0.52  2368
## 10  2010 BOM JESUS       RN     0.54  9341
## # ℹ 166 more rows
…
A função filter()

Para filtrar elementos contidos em um intervalo específico, fazemos:

# Filtrar linhas
pnud_mun |>
  select(
    ano, muni, uf, gini, pop
  ) |>
  filter(
    between(pop, 10000, 20000),
    ano == 2010
  )
## # A tibble: 1,385 × 5
##      ano muni                     uf     gini   pop
##    <dbl> <chr>                    <chr> <dbl> <dbl>
##  1  2010 CEREJEIRAS               RO     0.5  16815
##  2  2010 COLORADO DO OESTE        RO     0.49 18204
##  3  2010 COSTA MARQUES            RO     0.52 13246
##  4  2010 NOVA BRASILÂNDIA D'OESTE RO     0.56 18998
##  5  2010 SÃO MIGUEL DO GUAPORÉ    RO     0.62 19630
##  6  2010 ALVORADA D'OESTE         RO     0.53 16275
##  7  2010 ALTO ALEGRE DOS PARECIS  RO     0.54 11701
##  8  2010 ALTO PARAÍSO             RO     0.54 16802
##  9  2010 CAMPO NOVO DE RONDÔNIA   RO     0.67 11659
## 10  2010 CANDEIAS DO JAMARI       RO     0.47 18992
## # ℹ 1,375 more rows
…
A função filter()

Para excluir elementos específicos, fazemos:

# Filtrar linhas
pnud_mun |>
  select(
    ano, muni, uf, regiao, rdpc
  ) |>
  filter(
    !(regiao %in% c("Norte", "Nordeste")),
    ano == 2010
  )
## # A tibble: 3,319 × 5
##      ano muni                uf    regiao   rdpc
##    <dbl> <chr>               <chr> <chr>   <dbl>
##  1  2010 Abadia dos Dourados MG    Sudeste  596.
##  2  2010 Abaeté              MG    Sudeste  707.
##  3  2010 Abre Campo          MG    Sudeste  444.
##  4  2010 Acaiaca             MG    Sudeste  357.
##  5  2010 Açucena             MG    Sudeste  325.
##  6  2010 Água Boa            MG    Sudeste  322.
##  7  2010 Água Comprida       MG    Sudeste  701.
##  8  2010 Aguanil             MG    Sudeste  524.
##  9  2010 Águas Formosas      MG    Sudeste  390.
## 10  2010 Águas Vermelhas     MG    Sudeste  307.
## # ℹ 3,309 more rows
…
A função mutate() cria ou modifica colunas (variáveis). Como exemplo,

# Criar variaveis
pnud_mun |>
  select(
    muni, uf, rdpc, pop
  ) |>
  filter(
    uf == "PB"
  ) |>
  mutate(
    pib = rdpc * pop,
    pais = "Brasil"
  )
## # A tibble: 669 × 6
##    muni                     uf     rdpc   pop      pib pais  
##    <chr>                    <chr> <dbl> <dbl>    <dbl> <chr> 
##  1 ÁGUA BRANCA              PB     63.2  8048  508553. Brasil
##  2 AGUIAR                   PB     88.3  6739  595121. Brasil
##  3 ALAGOA GRANDE            PB    146   30011 4381606  Brasil
##  4 ALAGOA NOVA              PB    102.  15140 1541555. Brasil
##  5 ALAGOINHA                PB     85.3 11787 1005549. Brasil
##  6 ALCANTIL                 PB    120.   3845  461823. Brasil
##  7 ALGODÃO DE JANDAÍRA      PB     69.7  2211  154129. Brasil
##  8 ALHANDRA                 PB    130.  13128 1710447. Brasil
##  9 SÃO JOÃO DO RIO DO PEIXE PB     72.2 17354 1253653. Brasil
## 10 AMPARO                   PB     61.4  1668  102382. Brasil
## # ℹ 659 more rows
…
# Manter variaveis criadas
pnud_mun |>
  select(
    ano, muni, uf, rdpc, pop
  ) |>
  filter(
    uf == "PB",
    ano == 2010
  ) |>
  transmute(
    muni = muni,
    pib = rdpc * pop
  )
## # A tibble: 223 × 2
##    muni                          pib
##    <chr>                       <dbl>
##  1 ÁGUA BRANCA              2146075.
##  2 AGUIAR                   2234558.
##  3 ALAGOA GRANDE            8058289.
##  4 ALAGOA NOVA              5296061.
##  5 ALAGOINHA                3809052.
##  6 ALCANTIL                 1265232.
##  7 ALGODÃO DE JANDAÍRA       505416.
##  8 ALHANDRA                 4126783.
##  9 SÃO JOÃO DO RIO DO PEIXE 5530104.
## 10 AMPARO                    460696.
## # ℹ 213 more rows
…
A funcão slice() seleciona linhas baseado emsuas posições.

Usando where()

A função where() afeta as variáveis condicionalmente. É utilizada para transformar as variáveis de uma classe em outra:

# Mudar classe de variaveis
pnud_mun |>
  select(
    ano:idhm_r
    ) |>
  mutate(
    across(where(is.character), as.factor)
    )
## # A tibble: 16,686 × 8
##      ano muni                  uf    regiao  idhm idhm_e idhm_l idhm_r
##    <dbl> <fct>                 <fct> <fct>  <dbl>  <dbl>  <dbl>  <dbl>
##  1  1991 ALTA FLORESTA D'OESTE RO    Norte  0.329  0.112  0.617  0.516
##  2  1991 ARIQUEMES             RO    Norte  0.432  0.199  0.684  0.593
##  3  1991 CABIXI                RO    Norte  0.309  0.108  0.636  0.43 
##  4  1991 CACOAL                RO    Norte  0.407  0.171  0.667  0.593
##  5  1991 CEREJEIRAS            RO    Norte  0.386  0.167  0.629  0.547
##  6  1991 COLORADO DO OESTE     RO    Norte  0.376  0.151  0.658  0.536
##  7  1991 CORUMBIARA            RO    Norte  0.203  0.039  0.572  0.373
##  8  1991 COSTA MARQUES         RO    Norte  0.425  0.22   0.629  0.553
##  9  1991 ESPIGÃO D'OESTE       RO    Norte  0.388  0.159  0.653  0.561
## 10  1991 GUAJARÁ-MIRIM         RO    Norte  0.468  0.247  0.662  0.625
## # ℹ 16,676 more rows
Usando everything()

Já everything() afeta todas as variáveis. Por exemplo, para mudar o sistema de coordenadas de decimal para DMS, fazemos:

# Transformar coordenadas de decimal para graus
library(celestial)

pnud_mun |>
  select(
    lat, lon
  ) |>
  mutate(
    across(everything(), ~ deg2dms(.x, type = "cat", sep = ":"))
  )
## # A tibble: 16,686 × 2
##    lat          lon         
##    <chr>        <chr>       
##  1 -11:55:44.40 -61:59:45.60
##  2 -09:54:46.80 -63:02:27.60
##  3 -13:29:31.20 -60:32:42.00
##  4 -11:26:16.80 -61:26:52.80
##  5 -13:11:20.40 -60:48:43.20
##  6 -13:07:01.20 -60:32:31.20
##  7 -12:57:43.20 -60:53:13.20
##  8 -12:26:42.00 -64:13:37.20
##  9 -11:31:30.00 -61:00:46.80
## 10 -10:46:58.80 -65:20:20.40
## # ℹ 16,676 more rows
…
Para ordenar em ordem decrescente, utiliza-se o argumento desc()

# Ordenar linhas
pnud_mun |>
  select(
    ano, muni, uf, regiao, espvida
  ) |>
  filter(
    ano == 2010,
    regiao == "Nordeste"
  ) |>
  arrange(
    desc(espvida)
  )
## # A tibble: 1,794 × 5
##      ano muni                    uf    regiao   espvida
##    <dbl> <chr>                   <chr> <chr>      <dbl>
##  1  2010 FERNANDO DE NORONHA     PE    Nordeste    75.4
##  2  2010 OLINDA                  PE    Nordeste    75.2
##  3  2010 SALVADOR                BA    Nordeste    75.1
##  4  2010 NATAL                   RN    Nordeste    75.1
##  5  2010 SOBRAL                  CE    Nordeste    74.9
##  6  2010 JOÃO PESSOA             PB    Nordeste    74.9
##  7  2010 JABOATÃO DOS GUARARAPES PE    Nordeste    74.8
##  8  2010 PAULISTA                PE    Nordeste    74.8
##  9  2010 SÃO GONÇALO DO AMARANTE RN    Nordeste    74.7
## 10  2010 LAURO DE FREITAS        BA    Nordeste    74.6
## # ℹ 1,784 more rows
…
# Agregacao por gupo
pnud_mun |>
  filter(
    ano == 2010
  ) |>
  group_by(
    uf
  ) |>
  summarise(
    m_rdpc = mean(rdpc)
  ) |>
  arrange(
    desc(m_rdpc)
  )
## # A tibble: 27 × 2
##    uf    m_rdpc
##    <chr>  <dbl>
##  1 DF     1715.
##  2 SC      767.
##  3 RS      742.
##  4 SP      714.
##  5 RJ      666.
##  6 PR      610.
##  7 MS      597.
##  8 GO      583.
##  9 MT      580.
## 10 ES      576.
## # ℹ 17 more rows
…
Contando elementos

# Contando elementos por grupo
pnud_mun |>
  select(
    ano, uf, regiao, gini
  ) |>
  filter(
    ano == 2010
  ) |>
  group_by(
    uf
  ) |>
  count()
## # A tibble: 27 × 2
## # Groups:   uf [27]
##    uf        n
##    <chr> <int>
##  1 AC       22
##  2 AL      102
##  3 AM       62
##  4 AP       16
##  5 BA      417
##  6 CE      184
##  7 DF        1
##  8 ES       78
##  9 GO      245
## 10 MA      217
## # ℹ 17 more rows

Renomeando variáveis com rename()

Para renomear variáveis, utilizamos a função rename(), com a sintaxe dada por rename(nome_novo = nome_antigo)

# Renomeando variaveis
pnud_mun |>
  select(
    ano, regiao, gini
  ) |>
  rename(
    regiao_br = regiao, ind_gini = gini
  )
## # A tibble: 16,686 × 3
##      ano regiao_br ind_gini
##    <dbl> <chr>        <dbl>
##  1  1991 Norte         0.63
##  2  1991 Norte         0.57
##  3  1991 Norte         0.7 
##  4  1991 Norte         0.66
##  5  1991 Norte         0.6 
##  6  1991 Norte         0.62
##  7  1991 Norte         0.59
##  8  1991 Norte         0.65
##  9  1991 Norte         0.63
## 10  1991 Norte         0.6 
## # ℹ 16,676 more rows
…
pnud_mun |>
  filter(
    ano == 2010
  ) |>
  select(
    muni, uf, espvida
  ) |>
  mutate(
    ind_espvida = if_else(espvida >= media_espvida_2010, "alta", "baixa")
  )
## # A tibble: 5,562 × 4
##    muni                  uf    espvida ind_espvida
##    <chr>                 <chr>   <dbl> <chr>      
##  1 ALTA FLORESTA D'OESTE RO       70.8 baixa      
##  2 ARIQUEMES             RO       73.4 alta       
##  3 CABIXI                RO       70.4 baixa      
##  4 CACOAL                RO       74.3 alta       
##  5 CEREJEIRAS            RO       72.9 baixa      
##  6 COLORADO DO OESTE     RO       73.8 alta       
##  7 CORUMBIARA            RO       71.4 baixa      
##  8 COSTA MARQUES         RO       70.0 baixa      
##  9 ESPIGÃO D'OESTE       RO       74.2 alta       
## 10 GUAJARÁ-MIRIM         RO       74.4 alta       
## # ℹ 5,552 more rows
…
A função case_when() permite vetorizar múltiplas operações condicionais do tipo if_else. Neste caso, permite criar várias categorias:

pnud_mun |>
  select(
    ano, regiao, gini
  ) |>
  mutate(
    concentracao = case_when(
      gini < 0.4 ~ "baixa",
      gini >= 0.4 & gini < 0.6 ~ "média",
      gini >= 0.6 ~ "alta"
    )
  )
## # A tibble: 16,686 × 4
##      ano regiao  gini concentracao
##    <dbl> <chr>  <dbl> <chr>       
##  1  1991 Norte   0.63 alta        
##  2  1991 Norte   0.57 média       
##  3  1991 Norte   0.7  alta        
##  4  1991 Norte   0.66 alta        
##  5  1991 Norte   0.6  alta        
##  6  1991 Norte   0.62 alta        
##  7  1991 Norte   0.59 média       
##  8  1991 Norte   0.65 alta        
##  9  1991 Norte   0.63 alta        
## 10  1991 Norte   0.6  alta        
## # ℹ 16,676 more rows
…
