formatando-dados
…
Quizz #4

Usar as funções do tidyr para obter a seguinte base:

## # A tibble: 30 × 4
##    estudante_id unidade  port   mat
##           <int> <chr>   <dbl> <dbl>
##  1            1 1        5.59  9.81
##  2            1 2        5.88  7.13
##  3            1 3        7.78  6.46
##  4            2 1        5.71 11.2 
##  5            2 2        7.82  3.62
##  6            2 3        8.46  8.95
##  7            3 1        4.89 11.0 
##  8            3 2        6.37  4.94
##  9            3 3        6.36  7.05
## 10            4 1        4.55 10.6 
## # … with 20 more rows
…
Manipulando dados faltantes

Considere os dados do históricos da B3 no formato long

# Dados B3
dados_b3
## # A tibble: 396 × 3
##    Dia   mes    indice
##    <chr> <chr>   <dbl>
##  1 1     Jan       NA 
##  2 2     Jan       NA 
##  3 3     Jan   103922.
##  4 4     Jan   103514.
##  5 5     Jan   101006.
##  6 6     Jan   101561.
##  7 7     Jan   102719.
##  8 8     Jan       NA 
##  9 9     Jan       NA 
## 10 10    Jan   101945.
## # … with 386 more rows

A função drop_na()

Para remover todas as linhas contendo NA em uma ou mais colunas, fazemos:

# Dados B3
dados_b3 |> 
  drop_na()
## # A tibble: 274 × 3
##    Dia   mes    indice
##    <chr> <chr>   <dbl>
##  1 3     Jan   103922.
##  2 4     Jan   103514.
##  3 5     Jan   101006.
##  4 6     Jan   101561.
##  5 7     Jan   102719.
##  6 10    Jan   101945.
##  7 11    Jan   103779.
##  8 12    Jan   105686.
##  9 13    Jan   105530.
## 10 14    Jan   106928.
## # … with 264 more rows

A função fill()

A função fill() substitui os valores NA com os valores anteriores ou posteriores

# Dados B3
dados_b3 |> 
  fill(
    indice,
    .direction = "down"
    )
## # A tibble: 396 × 3
##    Dia   mes    indice
##    <chr> <chr>   <dbl>
##  1 1     Jan       NA 
##  2 2     Jan       NA 
##  3 3     Jan   103922.
##  4 4     Jan   103514.
##  5 5     Jan   101006.
##  6 6     Jan   101561.
##  7 7     Jan   102719.
##  8 8     Jan   102719.
##  9 9     Jan   102719.
## 10 10    Jan   101945.
## # … with 386 more rows

A função replace_na()

A função replace_na() especifica um valor para substituir NA para cada coluna:

# Dados B3
dados_b3 |> 
  replace_na(
    list(indice = 0)
  )
## # A tibble: 396 × 3
##    Dia   mes    indice
##    <chr> <chr>   <dbl>
##  1 1     Jan        0 
##  2 2     Jan        0 
##  3 3     Jan   103922.
##  4 4     Jan   103514.
##  5 5     Jan   101006.
##  6 6     Jan   101561.
##  7 7     Jan   102719.
##  8 8     Jan        0 
##  9 9     Jan        0 
## 10 10    Jan   101945.
## # … with 386 more rows
…
Portanto, temos agora todas as combinações de tipos de corrida para os anos disponíveis nos dados.

A função complete()

Caso desejamos ampliar as combinações para todos os anos em um intervalo, fazemos:

# Expandir combinacoes
dados_corridas |> 
  complete(
    ano = 2010:2022, tipo
  )
## # A tibble: 39 × 3
##      ano tipo          tempo_min
##    <dbl> <chr>             <dbl>
##  1  2010 10km                 NA
##  2  2010 maratona             NA
##  3  2010 meia maratona       110
##  4  2011 10km                 NA
##  5  2011 maratona            230
##  6  2011 meia maratona        NA
##  7  2012 10km                 NA
##  8  2012 maratona             NA
##  9  2012 meia maratona        NA
## 10  2013 10km                 NA
## # … with 29 more rows
…
A função crossing()

A função crossing() expande uma base de dados diretamente através de vetores, sem a necessidade de criar um data frame. Por exemplo, considere os 4 principais torneios de Grand Slam de tênis:

# Expandir com crossing
crossing(
  anos = 1905:2023,
  grand_slam = c("Australian Open", "Roland Garros", 
                 "Wimbledon", "US Open")
)
## # A tibble: 476 × 2
##     anos grand_slam     
##    <int> <chr>          
##  1  1905 Australian Open
##  2  1905 Roland Garros  
##  3  1905 US Open        
##  4  1905 Wimbledon      
##  5  1906 Australian Open
##  6  1906 Roland Garros  
##  7  1906 US Open        
##  8  1906 Wimbledon      
##  9  1907 Australian Open
## 10  1907 Roland Garros  
## # … with 466 more rows
…
